<?xml version="1.0" encoding="utf-8"?>
<!-- Generator: Adobe Illustrator 22.0.0, SVG Export Plug-In . SVG Version: 6.00 Build 0)  -->
<svg version="1.1" id="Layer_1" xmlns="http://www.w3.org/2000/svg" xmlns:xlink="http://www.w3.org/1999/xlink" x="0px" y="0px"
	 viewBox="0 0 38 38.1" style="enable-background:new 0 0 38 38.1;" xml:space="preserve">
<style type="text/css">
	.st0{opacity:0.85;}
	.st1{fill:#C1272D;}
	.st2{fill:#FFFFFF;}
</style>
<g class="st0">
</g>
<g>
	<circle class="st1" cx="19" cy="19.1" r="19"/>
	<g>
		<path class="st2" d="M10.6,21.6v-5.1h16.8v5.1H10.6z"/>
	</g>
</g>
</svg>
